         U CALLBACK_Audio_Device_GetSetEndpointProperty
         U CALLBACK_Audio_Device_GetSetInterfaceProperty
         U CALLBACK_HIDParser_FilterHIDReportItem
         U CALLBACK_HID_Device_CreateHIDReport
         U CALLBACK_HID_Device_ProcessHIDReport
00000000 W __heap_end
00000000 a __tmp_reg__
00000000 a __tmp_reg__
00000000 a __tmp_reg__
00000000 a __tmp_reg__
00000000 a __tmp_reg__
00000000 a __tmp_reg__
00000000 a __tmp_reg__
00000000 a __tmp_reg__
00000000 a __tmp_reg__
00000000 a __tmp_reg__
00000000 a __tmp_reg__
00000000 a __tmp_reg__
00000000 a __tmp_reg__
00000000 W __vector_default
00000000 T __vectors
00000001 a __zero_reg__
00000001 a __zero_reg__
00000001 a __zero_reg__
00000001 a __zero_reg__
00000001 a __zero_reg__
00000001 a __zero_reg__
00000001 a __zero_reg__
00000001 a __zero_reg__
00000001 a __zero_reg__
00000001 a __zero_reg__
00000001 a __zero_reg__
00000001 a __zero_reg__
00000001 a __zero_reg__
00000034 a __CCP__
00000034 a __CCP__
00000034 a __CCP__
00000034 a __CCP__
00000034 a __CCP__
00000034 a __CCP__
00000034 a __CCP__
00000034 a __CCP__
00000034 a __CCP__
00000034 a __CCP__
00000034 a __CCP__
00000034 a __CCP__
00000034 a __CCP__
0000003b a __RAMPZ__
0000003b a __RAMPZ__
0000003b a __RAMPZ__
0000003b a __RAMPZ__
0000003b a __RAMPZ__
0000003b a __RAMPZ__
0000003b a __RAMPZ__
0000003b a __RAMPZ__
0000003b a __RAMPZ__
0000003b a __RAMPZ__
0000003b a __RAMPZ__
0000003b a __RAMPZ__
0000003b a __RAMPZ__
0000003d a __SP_L__
0000003d a __SP_L__
0000003d a __SP_L__
0000003d a __SP_L__
0000003d a __SP_L__
0000003d a __SP_L__
0000003d a __SP_L__
0000003d a __SP_L__
0000003d a __SP_L__
0000003d a __SP_L__
0000003d a __SP_L__
0000003d a __SP_L__
0000003d a __SP_L__
0000003e a __SP_H__
0000003e a __SP_H__
0000003e a __SP_H__
0000003e a __SP_H__
0000003e a __SP_H__
0000003e a __SP_H__
0000003e a __SP_H__
0000003e a __SP_H__
0000003e a __SP_H__
0000003e a __SP_H__
0000003e a __SP_H__
0000003e a __SP_H__
0000003e a __SP_H__
0000003f a __SREG__
0000003f a __SREG__
0000003f a __SREG__
0000003f a __SREG__
0000003f a __SREG__
0000003f a __SREG__
0000003f a __SREG__
0000003f a __SREG__
0000003f a __SREG__
0000003f a __SREG__
0000003f a __SREG__
0000003f a __SREG__
0000003f a __SREG__
000001fc T ProductString
000001fc T __trampolines_end
000001fc T __trampolines_start
0000022c T ManufacturerString
00000246 T LanguageString
0000024a T ConfigurationDescriptor
0000026a T DeviceDescriptor
0000027c T __ctors_end
0000027c T __ctors_start
0000027c T __dtors_end
0000027c T __dtors_start
0000027c W __init
0000028c T __do_copy_data
000002a6 T __do_clear_bss
000002ae t .do_clear_bss_loop
000002b0 t .do_clear_bss_start
000002bc T __bad_interrupt
000002bc W __vector_1
000002bc W __vector_10
000002bc W __vector_100
000002bc W __vector_101
000002bc W __vector_102
000002bc W __vector_103
000002bc W __vector_104
000002bc W __vector_105
000002bc W __vector_106
000002bc W __vector_107
000002bc W __vector_108
000002bc W __vector_109
000002bc W __vector_11
000002bc W __vector_110
000002bc W __vector_111
000002bc W __vector_112
000002bc W __vector_113
000002bc W __vector_114
000002bc W __vector_115
000002bc W __vector_116
000002bc W __vector_117
000002bc W __vector_118
000002bc W __vector_119
000002bc W __vector_12
000002bc W __vector_120
000002bc W __vector_121
000002bc W __vector_122
000002bc W __vector_123
000002bc W __vector_124
000002bc W __vector_126
000002bc W __vector_13
000002bc W __vector_14
000002bc W __vector_15
000002bc W __vector_16
000002bc W __vector_17
000002bc W __vector_18
000002bc W __vector_19
000002bc W __vector_2
000002bc W __vector_20
000002bc W __vector_21
000002bc W __vector_22
000002bc W __vector_23
000002bc W __vector_24
000002bc W __vector_25
000002bc W __vector_26
000002bc W __vector_27
000002bc W __vector_28
000002bc W __vector_29
000002bc W __vector_3
000002bc W __vector_30
000002bc W __vector_31
000002bc W __vector_32
000002bc W __vector_33
000002bc W __vector_34
000002bc W __vector_35
000002bc W __vector_36
000002bc W __vector_37
000002bc W __vector_38
000002bc W __vector_39
000002bc W __vector_4
000002bc W __vector_40
000002bc W __vector_41
000002bc W __vector_42
000002bc W __vector_43
000002bc W __vector_44
000002bc W __vector_45
000002bc W __vector_46
000002bc W __vector_47
000002bc W __vector_48
000002bc W __vector_49
000002bc W __vector_5
000002bc W __vector_50
000002bc W __vector_51
000002bc W __vector_52
000002bc W __vector_53
000002bc W __vector_54
000002bc W __vector_55
000002bc W __vector_56
000002bc W __vector_57
000002bc W __vector_58
000002bc W __vector_59
000002bc W __vector_6
000002bc W __vector_60
000002bc W __vector_61
000002bc W __vector_62
000002bc W __vector_63
000002bc W __vector_64
000002bc W __vector_65
000002bc W __vector_66
000002bc W __vector_67
000002bc W __vector_68
000002bc W __vector_69
000002bc W __vector_7
000002bc W __vector_70
000002bc W __vector_71
000002bc W __vector_72
000002bc W __vector_73
000002bc W __vector_74
000002bc W __vector_75
000002bc W __vector_76
000002bc W __vector_77
000002bc W __vector_78
000002bc W __vector_79
000002bc W __vector_8
000002bc W __vector_80
000002bc W __vector_81
000002bc W __vector_82
000002bc W __vector_83
000002bc W __vector_84
000002bc W __vector_85
000002bc W __vector_86
000002bc W __vector_87
000002bc W __vector_88
000002bc W __vector_89
000002bc W __vector_9
000002bc W __vector_90
000002bc W __vector_91
000002bc W __vector_92
000002bc W __vector_93
000002bc W __vector_94
000002bc W __vector_95
000002bc W __vector_96
000002bc W __vector_97
000002bc W __vector_98
000002bc W __vector_99
000002be t LEDs_SetAllLEDs
000002da T SetupHardware
000003d2 T main
000003ee T EVENT_USB_Device_Connect
000003f2 T EVENT_USB_Device_Disconnect
000003f6 T EVENT_USB_Device_ConfigurationChanged
0000040a T EVENT_USB_Device_ControlRequest
00000412 T CALLBACK_MS_Device_SCSICommandReceived
0000042e T CALLBACK_USB_GetDescriptor
00000492 t Dataflash_SelectChipFromPage
000004ac t Dataflash_ToggleSelectedChipCS
000004c0 t Dataflash_WaitWhileBusy
000004f6 t Dataflash_SendAddressBytes
0000054e T DataflashManager_WriteBlocks
000008d8 T DataflashManager_ReadBlocks
00000c1a T DataflashManager_ResetDataflashProtections
00000cc4 T DataflashManager_CheckDataflashOperation
00000d10 t SCSI_Command_ReadWrite_10
00000d9a T SCSI_DecodeSCSICommand
00000fac T f_mount
00000fd8 T USB_Device_ProcessControlRequest
00001212 W EVENT_USB_Device_Reset
00001212 W EVENT_USB_Device_StartOfFrame
00001212 W EVENT_USB_Device_Suspend
00001212 W EVENT_USB_Device_WakeUp
00001212 T USB_Event_Stub
00001214 T USB_USBTask
00001236 T Endpoint_Null_Stream
000012bc T Endpoint_Write_Stream_LE
00001356 T Endpoint_Write_Stream_BE
000013fc T Endpoint_Read_Stream_LE
00001496 T Endpoint_Write_Control_Stream_LE
0000158e T Endpoint_Write_Control_PStream_LE
0000168a T Endpoint_ClearIN
000016bc T Endpoint_ClearOUT
000016da T Endpoint_Read_8
000016fa T Endpoint_Write_8
0000171a T Endpoint_SelectEndpoint
00001784 T Endpoint_IsINReady
0000179c T Endpoint_IsOUTReceived
000017d0 T Endpoint_IsSETUPReceived
00001804 T Endpoint_ClearSETUP
0000185c T Endpoint_StallTransaction
00001892 T Endpoint_ConfigureEndpoint_PRV
0000190c T Endpoint_ConfigureEndpointTable
000019d2 T Endpoint_ClearEndpoints
00001a0a T Endpoint_ClearStatusStage
00001a36 T Endpoint_WaitUntilReady
00001aba T USB_ResetInterface
00001b16 T USB_Init
00001b6a T USB_INT_DisableAllInterrupts
00001b78 T USB_INT_ClearAllInterrupts
00001b84 T __vector_125
00001c5e T MS_Device_ProcessControlRequest
00001cbe T MS_Device_ConfigureEndpoints
00001cf8 T MS_Device_USBTask
00001f3a T _exit
00001f3a W exit
00001f3c t __stop_program
00001f3e A __data_load_start
00001f3e T _etext
00001fae A __data_load_end
00005fff W __stack
00802000 D Disk_MS_Interface
00802000 D __data_start
00802039 d SenseData
0080204b d InquiryData
00802070 b DiskFATState
00802070 B __bss_start
00802070 D __data_end
00802070 D _edata
0080229e b Fsid
008022a0 b FatFs
008022a2 B USB_Device_ConfigurationNumber
008022a3 B USB_Device_CurrentlySelfPowered
008022a4 B USB_Device_RemoteWakeupEnabled
008022a5 B USB_IsInitialized
008022a6 B USB_DeviceState
008022a7 B USB_ControlRequest
008022af B USB_Endpoint_SelectedFIFO
008022b1 B USB_Endpoint_SelectedHandle
008022b3 B USB_Endpoint_SelectedEndpoint
008022b4 B USB_Endpoint_FIFOs
00802548 B USB_EndpointTable
0080259b B __bss_end
0080259b N _end
00810000 N __eeprom_end
